Analítica del reporte de tareas
…
Tiempo destinado a completar tareas

# A tibble: 94 × 7
   task_id           status_id   step_id reported_by        status time  explain
   <chr>             <chr>       <chr>   <chr>              <chr>  <chr> <chr>  
 1 buvij-gisam-nudip nohiz-mivob step_01 dgco93@mininter.g… Pendi… 2022… Asigna…
 2 fazup-rovod-vipun fodaj-sitob step_01 dgco93@mininter.g… Pendi… 2022… Asigna…
 3 vutat-zuzoj-kopip kujop-kimal step_01 dgco84@mininter.g… Pendi… 2022… Asigna…
 4 mumaj-mahor-rujog noror-zubor step_01 dgco84@mininter.g… Pendi… 2022… Asigna…
 5 gahuf-laral-sajid paraj-jabor step_01 dgco84@mininter.g… Pendi… 2022… Asigna…
 6 dogor-rahoh-tuhoj hufos-susil step_01 dgco84@mininter.g… Pendi… 2022… Asigna…
 7 fozal-ginug-kavov ravij-mapoj step_01 dgco84@mininter.g… Pendi… 2022… Asigna…
 8 kutup-zunak-duvij zozun-nojun step_01 dgco84@mininter.g… Pendi… 2022… Asigna…
 9 magut-giziz-kizin rodij-famaj step_01 dgco84@mininter.g… Pendi… 2022… Asigna…
10 lokiv-monaj-bizos gokaf-tojur step_01 dgco93@mininter.g… Pendi… 2022… Asigna…
# … with 84 more rows

# A tibble: 917 × 7
   task_id           status_id   step_id reported_by        status time  explain
   <chr>             <chr>       <chr>   <chr>              <chr>  <chr> <chr>  
 1 tadas-farav-tomih vurak-danud step_01 dgco93@mininter.g… Pendi… 2022… Asigna…
 2 tadas-farav-tomih vurak-danud step_02 dgco93@mininter.g… Pendi… 2022… Asigna…
 3 tadas-farav-tomih vurak-danud step_03 dgco93@mininter.g… Pendi… 2022… Asigna…
 4 tadas-farav-tomih vurak-danud step_04 dgco93@mininter.g… Pendi… 2022… Asigna…
 5 tadas-farav-tomih vurak-danud step_05 dgco93@mininter.g… Pendi… 2022… Asigna…
 6 tadas-farav-tomih vurak-danud step_11 dgco93@mininter.g… Pendi… 2022… Asigna…
 7 tadas-farav-tomih vurak-danud step_12 dgco93@mininter.g… Pendi… 2022… Asigna…
 8 tadas-farav-tomih vurak-danud step_13 dgco93@mininter.g… Pendi… 2022… Asigna…
 9 tadas-farav-tomih vurak-danud step_22 dgco93@mininter.g… Pendi… 2022… Asigna…
10 tadas-farav-tomih vurak-danud step_23 dgco93@mininter.g… Pendi… 2022… Asigna…
# … with 907 more rows
…
